"","","JAN","FEB","MRT","APR MEI","","JUN","JUL","AUG SEP","","OKT","NOV","DEC","YEAR"
"Air temperature","°C","26.8","27.1","27.6","28.1","28.4","29.0","28.9","29.5","29.6","29.0","28.6","27.9","28.4"
"Av. max. temperature","°C","30.4","30.9","31.5","31.8","32.2","32.5","32.5","33.3","33.0","32.4","32.0","31.0","32.0"
"Abs. max. temperature","°C","31.6","31.7","32.9","32.7","32.9","33.2","33.3","34.7","34.7","33.4","33.2","31.9","34.7"
"Av. min. temperature","°C","24.7","25.1","25.3","26.1","26.4","27.0","27.0","27.2","27.5","26.7","25.9","25.7","26.2"
"Abs. min. temperature","°C","22.6","24.2","23.7","23.7","24.6","25.4","24.4","25.9","23.1","24.4","23.5","23.9","22.6"
"Av. wetbulb temperature","°C","23.8","23.9","24.0","24.7","24.9","25.6","25.6","25.6","25.7","25.7","25.3","24.5","24.9"
"Av dew-point temperature","°C","22.3","22.5","22.5","23.4","23.6","24.4","24.4","24.1","24.2","24.5","24.1","23.2","23.6"
"Seawater temperature","°C","~","~","~","~","~","~","~","~","~","~","~","~","~"
"Air pressure *","mb","13.1","12.4","12.4","11.6","11.9","12.3","13.7","11.8","11.0","10.6","11.6","11.9","12.0"
"Vapor pressure","mb","27.0","27.2","27.2","28.7","29.1","30.5","30.5","30.1","30.2","30.7","30.0","28.4","29.1"
"Relative Humidity","%","76.7","75.9","74.1","75.8","75.3","76.5","77.0","73.6","73.3","76.8","77.1","75.8","75.7"
"Monthly rainfall","mm","38.0","1.2","0.0","2.0","1.7","4.8","22.7","7.0","29.8","84.6","58.0","59.4","309.2"
"Hours with rainfall","","34.0","2.0","0.0","1.0","4.0","9.0","16.0","4.0","8.0","31.0","54.0","33.0","196.0"
"Days with rainfall ≥ 1.0 mm","","7.0","1.0","0.0","1.0","1.0","2.0","3.0","1.0","2.0","8.0","12.0","10.0","48.0"
"Highest rainfall in 24 hrs.","mm","16.4","1.2","0.0","2.0","1.4","2.6","16.8","5.6","27.2","23.8","15.4","14.6","27.2"
"Days with thunder","","0.0","0.0","0.0","0.0","0.0","0.0","2.0","3.0","4.0","6.0","2.0","0.0","17.0"
"Cloud Coverage","%","36.5","29.7","33.4","53.0","53.2","68.8","57.0","49.1","63.5","62.1","52.9","55.9","51.3"
"Sunshine duration","%","~","~","~","~","~","~","~","~","~","~","~","~","~"
"Sunshine duration","hrs","~","~","~","~","~","~","~","~","~","~","~","~","~"
"Wind direction","deg","082","077","077","080","081","081","082","082","082","081","078","077","080"
"Wind speed","m/s","7.9","8.3","8.3","9.5","8.7","9.5","9.1","8.0","7.8","6.1","5.9","6.7","8.0"
"Av. max windspeed","m/s","16.3","16.5","16.1","17.7","16.5","17.5","17.7","15.7","15.3","13.4","13.9","14.0","15.9"
"Strongest windgust","m/s","18.5","18.0","20.0","19.5","19.5","19.5","21.6","20.6","20.0","19.0","20.0","19.0","21.6"
"Pesistency of the wind","%","~","~","~","","~","~","~","~","","~","~","~","~"
