"","","JAN","FEB","MRT","APR","MEI","JUN","JUL","AUG","SEP","OKT","NOV","DEC","YEAR"
"Air temperature","°C","28,0","27,9","28,7","29,1","29,7","30,0","29,9","30,4","28,8","29,1","27,5","27,0","28,8"
"Av. max. temperature","°C","31,8","31,8","32,7","32,9","33,3","33,5","33,3","34,2","31,9","32,3","30,3","30,1","32,3"
"Abs. max. temperature","°C","32,5","33,0","33,4","34,4","34,5","34,9","35,2","35,4","34,7","33,4","32,5","31,6","35,4"
"Av. min. temperature","°C","25,8","25,7","26,8","27,0","27,6","27,6","27,7","27,9","25,8","26,4","25,3","24,8","26,5"
"Abs. min. temperature","°C","24,0","25,2","26,0","24,4","25,3","24,2","25,5","26,1","23,9","24,5","23,0","22,9","22,9"
"Av. wetbulb temperature","°C","24,2","24,8","25,8","25,3","25,8","26,6","25,8","26,1","25,7","25,8","25,0","24,6","25,5"
"Av dew-point temperature","°C","22,7","23,7","24,7","23,9","24,5","25,5","24,3","24,6","24,6","24,6","24,0","23,5","24,2"
"Seawater temperature","°C","~","~","~","~","~","~","~","~","~","~","~","~","~"
"Air pressure *","mb","11,9","10,2","10,3","10,7","10,9","11,6","11,7","10,7","10,3","10,2","10,0","10,6","10,8"
"Vapor pressure","mb","27,6","29,2","31,2","29,6","30,7","32,7","30,5","31,0","31,0","31,0","29,8","28,9","30,3"
"Relative Humidity","%","73,6","78,3","78,7","73,8","73,9","77,4","72,8","71,9","78,8","77,4","81,5","81,4","76,6"
"Monthly rainfall","mm","8,8","0,2","4,4","16,2","7,8","49,4","19,8","42,6","235,2","107,4","196,2","218,4","906,4"
"Hours with rainfall","","9,0","1,0","7,0","18,0","14,0","21,0","14,0","14,0","70,0","52,0","107,0","89,0","416,0"
"Days with rainfall ≥ 1.0 mm","","3,0","1,0","3,0","3,0","4,0","5,0","4,0","5,0","18,0","14,0","21,0","17,0","98,0"
"Highest rainfall in 24 hrs.","mm","3,2","0,2","1,8","8,0","2,6","21,6","11,4","15,6","46,8","27,6","30,4","49,4","49,4"
"Days with thunder","","0,0","0,0","0,0","0,0","1,0","2,0","3,0","5,0","18,0","6,0","9,0","3,0","47,0"
"Cloud Coverage","%","37,7","43,3","46,1","71,8","56,2","55,7","60,3","52,0","69,6","60,6","76,7","64,0","57,8"
"Sunshine duration","%","~","~","~","~","~","~","~","~","~","~","~","~","~"
"Sunshine duration","hrs","~","~","~","~","~","~","~","~","~","~","~","~","~"
"Wind direction","deg","~","~","~","~","~","~","~","~","~","~","~","~","~"
"Wind speed","m/s","7,8","7,4","8,0","7,2","7,4","7,4","6,8","6,2","3,0","4,3","4,1","4,7","6,2"
"Av. max windspeed","m/s","15,7","15,2","15,2","14,2","14,4","14,6","14,1","13,3","11,1","11,2","11,7","11,2","13,5"
"Strongest windgust","m/s","18,5","18,0","20,0","17,0","17,5","17,5","17,5","18,0","18,5","14,4","17,3","15,8","20,0"
"Pesistency of the wind","%","~","~","~","~","~","~","~","~","~","~","~","~","~"
